<?xml version="1.0" encoding="utf-8"?>
<!-- Generator: Adobe Illustrator 16.0.0, SVG Export Plug-In . SVG Version: 6.00 Build 0)  -->
<!DOCTYPE svg PUBLIC "-//W3C//DTD SVG 1.1//EN" "http://www.w3.org/Graphics/SVG/1.1/DTD/svg11.dtd">
<svg version="1.1" id="katman_1" xmlns="http://www.w3.org/2000/svg" xmlns:xlink="http://www.w3.org/1999/xlink" x="0px" y="0px"
	 width="100px" height="100px" viewBox="0 0 100 100" enable-background="new 0 0 100 100" xml:space="preserve">
<path fill="#283582" d="M48.907,46.818"/>
<path fill="none" stroke="#1D1D1B" stroke-width="0.541" d="M48.907,46.818"/>
<path fill="#1D1D1B" d="M23.243,64.114c-1.68,0.594-4.379,0.689-5.047-1.391c-0.414-1.277-2.279,0.037-1.961,1.031
	c0.939,2.928,4.241,3.312,6.83,2.402c0.555-0.195,1.025-0.67,1.076-1.283C24.188,64.36,23.761,63.937,23.243,64.114"/>
<path fill="#1D1D1B" d="M54.639,43.396c1.037,0,2.002-2.113,0.674-2.113C54.275,41.283,53.311,43.396,54.639,43.396"/>
<path fill="#1D1D1B" d="M89.191,44.51c0.29-0.057,0.581-0.121,0.879-0.189c2.346-0.557,4.591-1.221,6.836-1.867
	c0.076-1.447,0.202-2.883,0.398-4.293c-7.842,2.309-15.234,4.895-22.514-1.676c-0.25-0.223-0.531-0.316-0.822-0.336
	c-0.848-2.453,0.098-5.369,0.11-7.879c0.019-2.182-1.385-4.693-2.947-6.141c-1.458-1.348-4.506-1.311-6.353-1.854
	c-1.961-0.582-4.667-1.102-6.625-0.33c-0.629,0.248-1.081,1.26-0.945,1.797c-0.73,0.879-1.488,1.732-2.292,2.523
	c-0.092-0.037-0.187-0.076-0.316-0.082c-0.721-0.037-1.413-0.316-2.138-0.412c-0.711-0.094-1.407,0.273-1.935,0.715
	c-1.068,0.898-1.258,2.625-0.875,3.928c-1.848,1.127-3.84,2.049-5.982,2.695c-0.545,0.164-1.285,0.891-1.069,1.535
	c0.472,1.455,0.804,2.701,0.698,4.264c-0.051,0.771,0.494,0.873,1.025,0.639c-0.545,1.359-0.838,2.922-1.562,4.281
	c-0.352,0.65-0.143,1.068,0.24,1.201c-0.468,0.695-0.711,1.5-0.278,2.176c1.139,1.803,3.62,2.1,5.512,2.668
	c1.021,0.305,2.276-1.693,1.132-2.035c-1.489-0.449-6.922-1.891-2.732-3.264c0.551-0.184,1.113-0.316,1.676-0.424
	c-0.303,0.443-0.407,1-0.037,1.34c0.68,0.615,1.416,1.146,2.084,1.785c0.837,0.777,0.215,1.416,0.277,2.275
	c0.022,0.316,0.08,0.607,0.178,0.873c-2.735-0.057-5.752,0.361-8.439,1.359c0.061-0.475-0.155-0.904-0.674-0.873
	c-0.316-2.055-2.7-3.768-4.079-5.121c-1.944-1.91-3.169-4.422-5.382-6.041c0.045-0.328-0.072-0.605-0.445-0.701
	c-3.09-0.785-6.783,3.125-8.978,4.781c-4.702,3.561-11.688,4.484-15.735,8.766c-0.363,0.385-0.512,1.037-0.123,1.447
	c0.569,0.602,1.189,1.094,1.844,1.518c-1.183-0.258-2.381-0.467-3.598-0.639c-0.772-0.094-1.506,1.025-1.278,1.676
	c-1.003,0.127-1.872,2.113-0.581,2.1c4.695-0.037,7.965,3.163,11.68,5.554c0.952,0.613,2.451-1.227,1.531-1.814
	c-2.198-1.423-4.244-3.056-6.47-4.231c1.676,0.492,3.308,1.105,4.901,1.885c0.408,0.195,0.882-0.057,1.198-0.455
	c1.663,1.094,3.263,2.296,4.838,3.522c0.025,0.613,0.562,1.055,1.354,0.467c4.765-3.548,9.868-6.476,15.219-8.974
	c-0.092,0.088-0.189,0.172-0.278,0.26c-2.087,2.111,0.51,4.193,2.546,2.145c3.51-3.555,9.758-3.094,15.844-2.283
	c-3.842,0.664-8.031,3.383-10.342,5.154c-2.077,1.599-0.835,4.938,1.644,3.034c1.525-1.17,3.232-2.321,5.066-3.093
	c-0.291,0.443-0.389,0.98,0,1.297c0.752,0.614,1.166,1.454,1.581,2.31c-2.998,1.744-6.061,3.369-9.151,4.963
	c-1.799,0.918-3.602,1.842-5.395,2.771c-2.059,1.062-2.014,1.959-2.824,0.195c-1.656-3.631-4.979-7.791-9.232-8.164
	c-1.037-0.096-2.008,1.992-0.674,2.111c3.244,0.285,6.662,3.814,7.898,7.152c-2.052-2.023-4.863-3.465-7.038-5.564
	c-0.772-0.734-2.242,0.936-1.587,1.752c-0.842,0.152-1.633,1.639-0.693,2.086c4.48,2.125,8.801,6.027,9.565,11.131
	c0.063,0.424,0.499,0.621,0.889,0.506c6.779-1.984,11.817-6.285,17.827-9.6c1.003-0.557,1.035-2.592-0.331-1.846
	c-2.688,1.492-14.071,10.566-16.667,7.949c0.05-0.031,0.101-0.057,0.148-0.096c5.141-3.838,11.494-5.521,16.382-9.738
	c0.986-0.848,0.369-2.537-0.822-1.506c-4.505,3.877-10.302,5.635-15.219,8.918c-0.161-0.596-0.382-1.139-0.646-1.645
	c6.41-3.492,13.021-6.596,19.292-10.354c0.781-0.461,0.957-1.879,0.31-2.004c-0.013-0.045-0.025-0.082-0.048-0.127
	c-0.543-1.112-1.059-2.22-2.039-3.022c0.648-0.178,1.309-0.322,1.977-0.373c1.502-0.133,3.193,0.625,3.678,2.162
	c0.221,0.688,0.16,1.417,0.098,2.132c-0.098,1.023,0.072,1.1-0.629,0.891c-2.047-0.619-4.566,3.385-2.274,4.074
	c4.028,1.219,6.549-2.543,6.865-6.318c3.658-0.968,7.39-1.304,11.196-1.657c4.788-0.449,9.411-1.91,14.16-0.777
	c0.513,1.625,3.693-0.039,3.908-1.891c0.014-0.141,0.007-0.266,0.014-0.406c0.05-0.215,0.062-0.424,0.031-0.613
	c-0.089-2.402-1.404-4.623-2.378-6.779C89.785,46.773,89.545,45.609,89.191,44.51z M22.582,59.371
	c-2.381-1.865-4.821-3.605-7.452-5.115c-1.98-1.139-4.165-1.885-5.914-3.346c1.749-1.291,4.158-1.967,6.03-2.896
	c2.409-1.215,4.778-2.467,7.124-3.801c1.916-1.096,5.221-5.055,7.682-5.174c0.043,0.07,0.098,0.127,0.174,0.17
	c2.267,1.424,3.51,3.783,5.239,5.75c1.179,1.34,3.743,2.908,4.222,4.756C33.665,52.357,27.926,55.52,22.582,59.371z M51.568,25.896
	c0.041,0.014,0.104,0.014,0.221-0.012c0.364,0.006,0.725,0.102,1.095,0.203c-0.439,0.365-0.889,0.727-1.347,1.062
	c-0.099-0.324-0.105-0.627-0.064-0.975C51.492,26.074,51.537,25.986,51.568,25.896z M44.9,41.291c0.382-0.955,0.647-1.91,0.92-2.936
	c0.626-2.346,3.548-2.467,5.524-2.914c2.552-0.57,5.704-0.494,8.275-1.316c-0.588,2.176-1.49,4.021-4.086,4.832
	c-1.594,0.5-3.342,0.645-4.999,0.848C48.694,40.045,46.557,40.322,44.9,41.291z M56.109,48.955c0.057-0.051,0.117-0.107,0.174-0.164
	c0.098,0.082,0.202,0.158,0.303,0.234C56.426,49,56.27,48.98,56.109,48.955z M58.363,47.279c-0.357,0.316-1.166-0.975-1.297-1.158
	c-0.691-1.012-1.976,0.406-1.884,1.246c0.073,0.639-1.36,0.539-1.688,0.475c-1.211-0.246-0.68-1.297-0.668-2.125
	c0.02-1.834-1.523-2.756-2.779-3.838c0.828-0.107,1.657-0.203,2.472-0.33c5.648-0.91,7.953-3.162,9.23-8.531
	c0.36-0.1,0.736-0.348,0.945-0.682c0.285,0.424,0.68,0.789,1.218,1.055c0.938,0.457,2.226-1.498,1.132-2.041
	c-1.224-0.602-1.075-2.24-0.465-3.221c0.225-0.359,0.278-0.986-0.123-1.232c0.044-0.037,0.088-0.082,0.143-0.113
	c1.495-0.969,3.165,0.967,3.646,2.176c0.407,1.037,0.499,2.238,0.401,3.338c-0.123,1.373-0.746,1.436-1.944,0.949
	c-0.978-0.404-2.258,1.58-1.132,2.043c4.721,1.916,5.66-4.111,4.642-7.342c-0.724-2.303-2.888-3.967-5.347-3.258
	c-2.936,0.842-2.992,4.363-3.738,6.855c-0.117,0.02-0.24,0.062-0.383,0.139c-1.638,0.904-5.023,0.904-6.877,1.24
	c-2.207,0.404-4.376,0.916-6.513,1.6c-0.927,0.291-1.582,0.771-2.072,1.354c0.02-1.107-0.129-2.137-0.407-3.188
	c5.749-2.068,10.523-5.895,14.298-10.713c0.076-0.096,0.136-0.189,0.181-0.285c1.594-0.127,3.387,0.348,4.793,0.771
	c1.126,0.33,2.381,0.861,3.555,0.986c1.773,0.178,2.131,0.811,3.152,2.215c2.527,3.465,0.031,7.76,1.154,11.527
	c-0.604,0.723-0.933,1.67-0.629,2.41c-0.278,0.229-0.5,0.545-0.531,0.867c-0.193,1.764-2.447,3.598-4.203,4.395
	c-0.654-1.803-1.982-3.256-3.301-4.617c-0.746-0.764-2.119,0.855-1.673,1.639c0.616,1.094-1.436,3.465-2.771,5.098
	C58.736,47.02,58.562,47.109,58.363,47.279z M58.99,49.359c0.227-0.113,0.448-0.297,0.604-0.568c0.743-1.309,2.707-3.238,3.664-5.16
	c0.75,0.904,1.386,1.885,1.664,3.029c0.098,0.404,0.475,0.633,0.889,0.506c2.675-0.861,5.932-3.391,6.811-6.287
	c0.408,0.342,0.81,0.664,1.211,0.955c-2.09,3.434-3.863,7.748-8.553,7.924C63.173,49.834,61.083,49.633,58.99,49.359z
	 M79.375,53.598c-5.594,1.012-11.13,0.891-16.598,2.479c-0.123-0.291-0.266-0.576-0.433-0.828c-0.531-0.822-1.163-1.416-1.866-1.828
	c2.553,0.322,4.924,0.525,6.865,0.285c5.727-0.695,6.957-5.787,9.385-10.131c2.344,1.131,4.746,1.611,7.384,1.568
	c0.126,0.119,0.266,0.189,0.417,0.24c1.102,1.125,1.303,2.973,1.74,4.4c0.31,1.037,0.897,2.068,1.416,3.111
	C84.941,52.705,82.234,53.078,79.375,53.598z"/>
<path fill="#1D1D1B" d="M344.711,76.287v-4.844h-4.246v-4.838h-4.393V47.557h3.398v-4.37h5.203v-4.535l-27.355-16.607
	l-27.324,16.607v4.535h5.195v4.37h3.406v19.049h-4.402v4.838h-4.242v4.844h-4.215v1.67h63.195v-1.67H344.711z M291.664,41.511
	v-1.917l25.656-15.602l25.674,15.602v1.917H291.664z M296.865,45.893v-2.706h40.934v2.706H296.865z M334.393,47.557v19.049h-5.314
	V47.557H334.393z M317.324,51.092c-3.275,0-5.938,2.662-5.938,5.939V66.6h-4.117V47.562h20.145V66.6h-4.135v-9.568
	C323.279,53.754,320.609,51.092,317.324,51.092z M321.605,57.023v9.582h-8.547v-9.582c0-2.354,1.916-4.269,4.266-4.269
	C319.689,52.755,321.605,54.67,321.605,57.023z M305.604,47.557v19.049h-5.338V47.557H305.604z M295.873,68.275h42.926v3.168
	h-42.926V68.275z M343.031,76.281h-51.41v-3.162h51.41V76.281z"/>
<path fill="#1D1D1B" d="M170.401,61.318v-31.52c13.113-3.51,26.201-7.02,39.367-10.549v0.595c0,13.426-0.078,26.865,0.032,40.298
	c0.051,6.394-4.604,11.845-9.894,13.527c-2.027,0.645-4.083,0.822-6.135,0.113c-2.752-0.948-4.363-2.909-4.857-5.761
	c-0.496-2.878,0.301-5.489,1.803-7.912c1.742-2.833,4.154-4.901,7.279-6.097c2.375-0.897,4.797-1.132,7.219-0.157
	c0.582,0.228,1.125,0.575,1.723,0.892V30.83c-1.08,0.284-2.149,0.568-3.212,0.854c-9.777,2.618-19.558,5.236-29.335,7.854
	c-1.224,0.329-1.224,0.322-1.224,1.587c0,8.646-0.016,17.304,0.013,25.948c0.006,2.385-0.61,4.585-1.834,6.597
	c-1.834,3.022-4.392,5.229-7.757,6.406c-2.526,0.879-5.072,1.006-7.52-0.271c-2.311-1.215-3.516-3.207-3.801-5.762
	c-0.357-3.111,0.674-5.856,2.467-8.342c1.97-2.713,4.541-4.648,7.804-5.553c2.35-0.651,4.674-0.607,6.891,0.569
	C169.733,60.882,170.019,61.078,170.401,61.318"/>
<path fill="#1D1D1B" d="M623.23,74.354c-6.68,0-13.354,0-20.033,0h-0.885c0.271-0.222,0.42-0.348,0.582-0.469
	c6.385-4.527,10.479-10.605,11.98-18.276c3.115-15.848-7.131-30.52-21.992-33.955c-14.824-3.427-29.945,5.256-34.324,19.833
	c-0.576,1.916-0.791,3.946-1.17,5.92c-0.035,0.17-0.086,0.335-0.123,0.499v4.173c0.168,1.088,0.297,2.188,0.502,3.27
	c1.342,7.021,4.826,12.781,10.355,17.284c4.096,3.346,8.795,5.376,14.021,6.141c1.516,0.222,3.07,0.291,4.611,0.298
	c12.441,0.025,24.875,0.013,37.314,0.019v-4.698C623.793,74.38,623.508,74.354,623.23,74.354z M572.219,57.051
	c-0.001,0-0.002,0-0.003,0s-0.002,0-0.003,0c-3.893,0.007-7.119-3.225-7.076-7.083c0.014-1.447,0.46-2.787,1.212-3.902
	c1.271-1.888,3.423-3.13,5.864-3.13c3.877,0.007,7.031,3.169,7.031,7.058C579.252,53.877,576.09,57.045,572.219,57.051z
	 M586.365,71.186c-1.702,0.009-3.266-0.588-4.486-1.587c-1.57-1.285-2.574-3.235-2.58-5.42c-0.008-2.447,1.237-4.615,3.119-5.894
	c1.129-0.769,2.487-1.216,3.941-1.209c1.369,0.007,2.649,0.417,3.736,1.107c1.492,0.948,2.61,2.433,3.074,4.173
	c0.153,0.572,0.243,1.168,0.244,1.784c0,1.34-0.389,2.592-1.05,3.662C591.123,69.814,588.902,71.174,586.365,71.186z
	 M593.343,36.792c-0.466,3.41-3.442,6.107-6.985,6.125c-3.9,0.019-7.084-3.22-7.059-7.172c0.031-3.839,3.199-6.963,7.064-6.944
	h0.001h0.001c3.912,0.02,7.074,3.213,7.049,7.108C593.411,36.209,593.383,36.502,593.343,36.792z M593.42,49.962
	c0.033-3.864,3.221-7.026,7.084-7.026c2.242,0.004,4.231,1.06,5.517,2.697c0.944,1.201,1.513,2.713,1.513,4.361
	c0,3.889-3.143,7.051-7.023,7.057C596.623,57.058,593.395,53.826,593.42,49.962z"/>
<path fill="#1D1D1B" d="M472.573,83.812l-4.211-3.453c-5.559-4.561-12.671-9.568-14.404-9.766c-16.354,0-29.697-12.199-29.697-27.2
	c0-15.001,13.344-27.206,29.742-27.206s29.739,12.205,29.739,27.206c0,8.924-4.736,17.145-12.746,22.254L472.573,83.812z
	 M454.003,20.779c-13.869,0-25.151,10.145-25.151,22.615c0,12.465,11.282,22.61,25.151,22.61c2.688,0,8.338,3.844,13.066,7.463
	l-0.896-10.309l1.271-0.729c7.33-4.199,11.707-11.312,11.707-19.036C479.151,30.923,467.868,20.779,454.003,20.779z"/>
</svg>
