<?xml version="1.0" encoding="utf-8"?>
<!-- Generator: Adobe Illustrator 16.0.4, SVG Export Plug-In . SVG Version: 6.00 Build 0)  -->
<!DOCTYPE svg PUBLIC "-//W3C//DTD SVG 1.1//EN" "http://www.w3.org/Graphics/SVG/1.1/DTD/svg11.dtd">
<svg version="1.1" id="katman_1" xmlns="http://www.w3.org/2000/svg" xmlns:xlink="http://www.w3.org/1999/xlink" x="0px" y="0px"
	 width="28px" height="28px" viewBox="0 0 28 28" style="enable-background:new 0 0 28 28;" xml:space="preserve">
<g>
	<path style="fill:#FFFFFF;" d="M14,1.695C7.201,1.695,1.689,7.204,1.689,14c0,6.795,5.512,12.305,12.311,12.305
		S26.311,20.795,26.311,14C26.311,7.204,20.799,1.695,14,1.695"/>
	<path style="fill:none;stroke:#000000;stroke-linecap:round;stroke-linejoin:round;stroke-miterlimit:10;" d="M14,1.695
		C7.201,1.695,1.689,7.204,1.689,14c0,6.795,5.512,12.305,12.311,12.305S26.311,20.795,26.311,14
		C26.311,7.204,20.799,1.695,14,1.695"/>
	<path style="fill:none;stroke:#000000;stroke-linecap:round;stroke-linejoin:round;stroke-miterlimit:10;" d="M11.646,12.308
		c0.528-0.73,1.385-1.209,2.354-1.209s1.826,0.479,2.354,1.209c0.344,0.477,0.551,1.061,0.551,1.692c0,1.599-1.304,2.9-2.904,2.9
		S11.097,15.6,11.097,14C11.097,13.369,11.303,12.785,11.646,12.308"/>
	<path style="fill:none;stroke:#000000;stroke-linecap:round;stroke-linejoin:round;stroke-miterlimit:10;" d="M17.779,9.521
		c0.092-0.126,0.24-0.209,0.408-0.209s0.315,0.083,0.408,0.209c0.059,0.083,0.095,0.184,0.095,0.293
		c0,0.277-0.227,0.502-0.503,0.502c-0.278,0-0.503-0.225-0.503-0.502C17.685,9.704,17.721,9.604,17.779,9.521"/>
	<path style="fill:none;stroke:#000000;stroke-linecap:round;stroke-linejoin:round;stroke-miterlimit:10;" d="M18.405,6.822H9.594
		c-1.531,0-2.775,1.244-2.775,2.775v2.93v5.877c0,1.529,1.244,2.773,2.775,2.773h8.812c1.53,0,2.776-1.244,2.776-2.773v-5.877v-2.93
		C21.182,8.066,19.936,6.822,18.405,6.822"/>
</g>
</svg>
